[{
        "id": 1,
        "studentId": "602115504",
        "name": "Dara",
        "surname": "Neb",
        "gpa": 3.51,
        "image": "assets/images/dara.jpg",
        "featured": false,
        "penAmount": 21,
        "description": "Work Hard,Sleep Harder!!!"
    },
    {
        "id": 2,
        "studentId": "SE-002",
        "name": "Jurgen",
        "surname": "Kloop",
        "gpa": 2.15,
        "image": "assets/images/kloop.jpg",
        "featured": true,
        "penAmount": 2,
        "description": "The man for the Kop"
    },
    {
        "id": 3,
        "studentId": "SE-003",
        "name": "Ae+",
        "surname": "Parena",
        "gpa": 2.15,
        "image": "assets/images/pareena.jpg",
        "featured": true,
        "penAmount": 0,
        "description": "The most beloved one"
    }
]